Analyzing and Visualizing Ridership Patterns in Île-de-France Rail Network
…
b. Top 3 most frequented stops per day

top_3_arrets_per_day = merged_df %>%
  group_by(day_of_week, LIBELLE_ARRET) %>%
  summarise(total_validations = sum(sum_nbvald, na.rm = TRUE)) %>%
  group_by(day_of_week) %>%
  top_n(3, total_validations) %>%
  arrange(day_of_week, desc(total_validations))

`summarise()` has grouped output by 'day_of_week'. You can override using the
`.groups` argument.

print(top_3_arrets_per_day)

# A tibble: 21 × 3
# Groups:   day_of_week [7]
   day_of_week LIBELLE_ARRET           total_validations
   <ord>       <chr>                               <dbl>
 1 "dim\\."    MONTPARNASSE                     85530912
 2 "dim\\."    GARE DE LYON                     84887257
 3 "dim\\."    LA DEFENSE-GRANDE ARCHE          78098456
 4 "lun\\."    LA DEFENSE-GRANDE ARCHE         276679152
 5 "lun\\."    MONTPARNASSE                    161745888
 6 "lun\\."    GARE DE LYON                    161001883
 7 "mar\\."    LA DEFENSE-GRANDE ARCHE         295309224
 8 "mar\\."    MONTPARNASSE                    164618680
 9 "mar\\."    GARE DE LYON                    164271009
10 "mer\\."    LA DEFENSE-GRANDE ARCHE         288885696
# ℹ 11 more rows
…
c. Top 3 most frequented stops per day

top_3_arrets_per_month = merged_df %>%
  group_by(month, LIBELLE_ARRET) %>%
  summarise(total_validations = sum(sum_nbvald, na.rm = TRUE)) %>%
  group_by(month) %>%
  top_n(3, total_validations) %>%
  arrange(month, desc(total_validations))

`summarise()` has grouped output by 'month'. You can override using the
`.groups` argument.

print(top_3_arrets_per_month)

# A tibble: 36 × 3
# Groups:   month [12]
   month    LIBELLE_ARRET           total_validations
   <fct>    <chr>                               <dbl>
 1 January  LA DEFENSE-GRANDE ARCHE         143857144
 2 January  GARE DE LYON                     82023214
 3 January  MONTPARNASSE                     76573200
 4 February LA DEFENSE-GRANDE ARCHE         140816424
 5 February MONTPARNASSE                     85837368
 6 February GARE DE LYON                     82332656
 7 March    LA DEFENSE-GRANDE ARCHE         138847504
 8 March    GARE DE LYON                     83870773
 9 March    MONTPARNASSE                     82747552
10 April    LA DEFENSE-GRANDE ARCHE         112752040
# ℹ 26 more rows
…
